{
  "project_info": {
    "project_number": "454081362982",
    "firebase_url": "https://mineral-balm-254414.firebaseio.com",
    "project_id": "mineral-balm-254414",
    "storage_bucket": "mineral-balm-254414.appspot.com"
  },
  "client": [
    {
      "client_info": {
        "mobilesdk_app_id": "1:454081362982:android:4703664e847706feb4fae7",
        "android_client_info": {
          "package_name": "com.example.mobiservrider"
        }
      },
      "oauth_client": [
        {
          "client_id": "454081362982-5gt1joli54o9ss9u0g304i11kmla66b6.apps.googleusercontent.com",
          "client_type": 3
        }
      ],
      "api_key": [
        {
          "current_key": "AIzaSyD7Kj2yCHsNAXylcTDi1yzsRMsHmTwI-To"
        }
      ],
      "services": {
        "appinvite_service": {
          "other_platform_oauth_client": [
            {
              "client_id": "454081362982-5gt1joli54o9ss9u0g304i11kmla66b6.apps.googleusercontent.com",
              "client_type": 3
            }
          ]
        }
      }
    }
  ],
  "configuration_version": "1"
}